 fr173 
 fr174 
 fr175 
 fr176 
 fr200 
 fr201 
 fr202 
 fr203 
 fr204 
 fr205 
 fr206 
 fr207 
 fr208 
 fr209 
 fr210 
 fr211 
 fr212 
 fr213 
 fr214 
 fr215 
 fr216 
 fr217 
 fr218 
 fr219 
 fr220 
 fr221 
 fr222 
 fr223 
 fr224 
 fr225 
 fr226 
 fr227 
 fr228 
 fr229 
 fr230 
 fr231 
 fr232 
 fr233 
 fr234 
 fr235 
 fr236 
 fr237 
 fr238 
 fr239 
 fr240 
 fr241 
 fr242 
 fr243 
 fr252 
 fr253 
 fr254 
 fr255 
 fr256 
 fr257 
 fr258 
 fr259 
 fr260 
 fr270 
 fr271 
 fr272 
 fr273 
 fr278 
 fr279 
 fr288 
 fr289 
 fr290 
 fr291 
 fr292 
 fr293 
 fr294 
 fr303 
 fr304 
 fr305 
 fr306 
 fr307 
 fr308 
 fr309 
 fr310 
 fr311 
 fr312 
 fr313 
 fr314 
 fr315 
 fr316 
 fr333 
 fr334 
 fr335 
 fr336 
 fr337 
 fr338 
 fr339 
 fr340 
 fr341 
 fr342 
 fr343 
 fr344 
 fr345 
 fr346 
 fr347 
 fr348 
 fr349 
 fr350 
 fr351 
 fr352 
 fr353 
 fr354 
 fr355 
 fr356 
 fr357 
 fr358 
 fr359 
 fr360 
 fr361 
 fr362 
 fr363 
 fr364 
 fr365 
 fr366 
 fr367 
 fr368 
 fr369 
 fr370 
 fr371 
 fr372 
 fr373 
 fr374 
 fr375 
 fr376 
 fr377 
 fr378 
 fr379 
 fr380 
 fr381 
 fr382 
 fr383 
 fr384 
 fr385 
 fr386 
 fr387 
 fr388 
 fr389 
 fr390 
 de111 
 de112 
 de113 
 de114 
 de119 
 de120 
 de121 
 de122 
 de415 
 de416 
 de417 
 de419 
 de420 
 de421 
 de422 
 de423 
 de424 
 de425 
 de426 
 de427 
 de428 
 de429 
 de430 
 de431 
 de432 
 de433 
 de434 
 de435 
 de436 
 de437 
 de438 
 de439 
 de440 
 de441 
 de442 
 de443 
 de444 
 de445 
 de446 
 de447 
 de448 
 de449 
 de450 
 de451 
 de452 
 de453 
 de454 
 de455 
 de456 
 de457 
 de458 
 de463 
 de464 
 de465 
 de466 
 de467 
 de468 
 de469 
 de470 
 de471 
 de472 
 de473 
 de474 
 de475 
 de476 
 de477 
 de478 
 de487 
 de488 
 de489 
 de490 
 de491 
 de492 
 de493 
 de494 
 de495 
 de496 
 de497 
 de498 
 de499 
 de500 
 de501 
 de503 
 de504 
 de505 
 de506 
 de511 
 de512 
 de514 
 de515 
 de516 
 de517 
 de513 
 de518 
 de519 
 de520 
 de521 
 de522 
 de523 
 de524 
 de525 
 de526 
 de527 
 de528 
 de529 
 de532 
 de531 
 de530 
 de533 
 de534 
 de535 
 de536 
 de537 
 de538 
 de539 
 de540 
 de541 
 de542 
 de543 
 de544 
 de546 
 de547 
 de548 
 de549 
 de550 
 de551 
 de552 
 de553 
 de554 
 de555 
 de556 
 de557 
 de558 
 de559 
 de560 
 de561 
 de562 
 de563 
 de564 
 de565 
 de568 
 de569 
 de570 
 de571 
 de572 
 de573 
 de574 
 de575 
 de576 
 de577 
 de578 
 de579 
 de580 
 de581 
 de582 
 de583 
 de584 
 de585 
 de586 
 de587 
 de588 
 de589 
 de590 
 de591 
 de592 
 de593 
 de594 
 de595 
 de596 
 de597 
 de598 
 de599 
 de600 
 de601 
 de602 
 de603 
 de604 
 de605 
 de606 
 de607 
 de608 
 de609 
 de610 
 de611 
 de612 
 de613 
 de614 
 de615 
 de616 
 de617 
 de618 
 de619 
 de620 
 de621 
 de622 
 de623 
 de624 
 de625 
 de626 
 de627 
 de628 
 de629 
 de630 
 de631 
 de632 
 de633 
 de634 
 de635 
 de636 
 de637 
 de638 
 de639 
 de640 
 de641 
 de642 
 de643 
 de644 
 de645 
 de646 
 de647 
 de648 
 de649 
 de650 
 de651 
 de652 
 de653 
 uk73 
 uk74 
 uk75 
 uk76 
 uk77 
 uk78 
 uk79 
 uk80 
 uk81 
 uk82 
 uk83 
 uk84 
 uk118 
 uk119 
 uk120 
 uk121 
 uk122 
 uk123 
 uk124 
 uk125 
 uk465 
 uk466 
 uk467 
 uk468 
 uk689 
 uk697 
 uk698 
 uk699 
 uk700 
 uk701 
 uk702 
 uk703 
 uk704 
 uk705 
 uk706 
 uk707 
 uk708 
 uk715 
 uk716 
 uk717 
 uk718 
 uk719 
 uk720 
 uk713 
 uk714 
 uk725 
 uk726 
 uk727 
 uk728 
 uk729 
 uk730 
 uk731 
 uk732 
 uk733 
 uk734 
 uk735 
 uk736 
 uk737 
 uk738 
 uk739 
 uk740 
 uk741 
 uk742 
 uk743 
 uk744 
 uk745 
 uk746 
 uk747 
 uk748 
 uk749 
 uk750 
 uk751 
 uk752 
 uk753 
 uk754 
 uk755 
 uk756 
 uk757 
 uk758 
 uk759 
 uk760 
 uk761 
 uk762 
 uk763 
 uk764 
 uk768 
 uk769 
 uk770 
 uk771 
 uk772 
 uk773 
 uk774 
 uk775 
 uk776 
 uk777 
 uk778 
 uk779 
 uk780 
 uk781 
 uk782 
 uk783 
 uk784 
 uk785 
 uk786 
 uk787 
 uk788 
 uk789 
 uk790 
 uk791 
 uk792 
 uk793 
 uk794 
 uk795 
 uk796 
 uk797 
 uk798 
 uk799 
 uk800 
 uk801 
 uk802 
 uk803 
 uk804 
 uk805 
 uk806 
 uk807 
 uk808 
 uk809 
 uk810 
 uk811 
 uk816 
 uk817 
 uk818 
 uk819 
 uk820 
 uk821 
 uk822 
 uk823 
 uk824 
 uk825 
 uk826 
 uk827 
 uk828 
 uk829 
 uk830 
 uk831 
 uk832 
 uk833 
 uk834 
 uk835 
 uk836 
 uk837 
 uk838 
 uk839 
 uk840 
 uk841 
 uk842 
 uk843 
 uk844 
 uk845 
 uk846 
 uk847 
 uk848 
 uk849 
 uk850 
 uk851 
 uk852 
 uk853 
 uk854 
 uk855 
 uk856 
 uk857 
 uk858 
 uk859 
 uk860 
 uk861 
 uk862 
 uk863 
 uk900 
 uk901 
 uk902 
 uk903 
 uk904 
 uk905 
 uk906 
 uk907 
 uk908 
 uk909 
 uk268 
 uk269 
 uk270 
 uk271 
 uk881 
 uk882 
 uk912 
 uk913 
 uk914 
 uk915 
 uk916 
 uk917 
 uk920 
 uk921 
 uk922 
 uk923 
 uk924 
 uk925 
 uk926 
 uk927 
 uk928 
 uk929 
 uk930 
 uk931 
 uk932 
 uk933 
 uk934 
 uk935 
 uk936 
 uk937 
 uk938 
 uk939 
 uk940 
 uk941 
 uk942 
 uk943 
 uk944 
 uk945 
 uk946 
 uk947 
 uk948 
 uk949 
 uk950 
 uk951 
 uk954 
 uk955 
 uk956 
 uk957 
 uk958 
 uk959 
 uk960 
 uk961 
 uk962 
 uk963 
 uk964 
 uk965 
 uk966 
 uk967 
 uk968 
 uk969 
 uk970 
 uk971 
 uk972 
 uk973 
 uk974 
 uk975 
 uk976 
 uk977 
 uk978 
 uk979 
 uk980 
 uk981 
 uk984 
 uk985 
 uk986 
 uk987 
 uk988 
 uk989 
 uk990 
 uk991 
 uk992 
 uk993 
 uk994 
 uk995 
 uk996 
 uk997 
 uk998 
 uk999 
 uk1000 
 uk1001 
 uk1002 
 uk1003 
 uk982 
 uk983 
 uk1004 
 uk1005 
 uk1006 
 uk1007 
 uk1008 
 uk1009 
 uk1010 
 uk1011 
 uk1012 
 uk1013 
 uk1014 
 uk1015 
 uk1016 
 uk1017 
 uk1018 
 uk1019 
 uk1020 
 uk1021 
 uk1022 
 uk1023 
 uk1024 
 uk1025 
 uk1026 
 uk1027 
 uk1028 
 uk1029 
 uk1030 
 uk1031 
 uk1032 
 uk1033 
 uk1034 
 uk1035 
 uk1036 
 uk1037 
 uk1038 
 uk1039 
 uk1040 
 uk1041 
 uk1042 
 uk1043 
 uk1044 
 uk1045 
 uk1046 
 uk1047 
 uk1048 
 uk1049 
 uk1050 
 uk1051 
 uk1052 
 uk1053 
 uk1054 
 uk1055 
 uk1057 
 uk1058 
 uk1059 
 uk1060 
 uk1061 
 uk1062 
 uk1063 
 uk1064 
 uk1065 
 uk1066 
 uk1067 
 uk1068 
 uk1069 
 uk1070 
 uk1071 
 uk1072 
 uk1073 
 uk1074 
 uk1075 
 uk1076 
 uk1077 
 uk1078 
 uk1079 
 uk1080 
 uk1081 
 uk1082 
 uk1083 
 uk1084 
 uk1085 
 uk1086 
 uk1087 
 uk1088 
 uk1089 
 uk1090 
 uk1091 
 uk1092 
 uk1093 
 uk1094 
 uk1095 
 uk1096 
 uk1097 
 uk1098 
 uk1099 
 uk1100 
 uk1101 
 uk1102 
 uk1103 
 uk1104 
 uk1105 
 uk1106 
 uk1107 
 uk1108 
 uk1109 
 uk1110 
 uk1111 
 uk1112 
 uk1113 
 uk1114 
 uk1115 
 uk1116 
 uk1117 
 uk1118 
 uk1119 
 uk1120 
 uk1121 
 uk1122 
 uk1123 
 uk1124 
 uk1125 
 uk1126 
 uk1127 
 uk1128 
 uk1129 
 uk1130 
 uk1131 
 uk1132 
 uk1133 
 uk1134 
 uk1135 
 uk1146 
 uk1147 
 uk1148 
 uk1149 
 uk1150 
 uk1151 
 uk1152 
 uk1153 
 uk1154 
 uk1155 
 uk1156 
 uk1157 
 uk1158 
 uk1159 
 uk1160 
 uk1161 
 uk1162 
 uk1163 
 uk1164 
 uk1165 
 uk1166 
 uk1167 
 uk1168 
 uk1169 
 uk1170 
 uk1171 
 uk1172 
 uk1173 
 uk1174 
 uk1175 
 uk1176 
 uk1177 
 uk1178 
 uk1179 
 uk1180 
 uk1181 
 uk1182 
 uk1183 
 uk1184 
 uk1185 
 uk1186 
 uk1187 
 uk1188 
 uk1189 
 uk1190 
 uk1191 
 uk1192 
 uk1193 
 uk1194 
 uk1195 
 uk1196 
 uk1197 
 uk1198 
 uk1199 
 uk1200 
 uk1201 
 uk1202 
 uk1203 
 uk1204 
 uk1205 
 uk1206 
 uk1207 
 uk1208 
 uk1209 
 uk1210 
 uk1211 
 uk1212 
 uk1213 
 uk1214 
 uk1215 
 uk1216 
 uk1217 
 uk1218 
 uk1219 
 uk1220 
 uk1221 
 uk1222 
 uk1223 
 uk1224 
 uk1225 
 uk1226 
 uk1227 
 uk1228 
 uk1229 
 uk1230 
 uk1231 
 uk1232 
 uk1233 
 uk1234 
 uk1235 
 uk1236 
 uk1237 
 uk1238 
 uk1239 
 uk1240 
 uk1241 
 uk1242 
 uk1243 
 uk1244 
 uk1245 
 uk1246 
 uk1247 
 uk1248 
 uk1249 
 uk1250 
 uk1251 
 uk1252 
 uk1253 
 uk1254 
 uk1255 
 uk1256 
 uk1257 
 uk1258 
 uk1259 
 uk1260 
 uk1261 
 uk1262 
 uk1263 
 uk1264 
 uk1265 
 uk1266 
 uk1267 
 uk1268 
 uk1269 
 uk1270 
 uk1271 
 uk1272 
 uk1273 
 uk1274 
 uk1275 
 uk1276 
 uk1277 
 uk1278 
 uk1279 
 uk1280 
 uk1281 
 uk1282 
 uk1283 
 uk1284 
 uk1285 
 uk1286 
 uk1287 
 uk1288 
 uk1289 
 uk1290 
 uk1291 
 uk1292 
 uk1293 
 uk1294 
 uk1295 
 uk1296 
 uk1297 
 uk1298 
 uk1299 
 uk1300 
 uk1301 
 uk1302 
 uk1303 
 uk1304 
 uk1305 
 uk1306 
 uk1307 
 uk1308 
 uk1309 
 uk1310 
 uk1311 
 uk1312 
 uk1313 
 uk1314 
 uk1315 
 uk1316 
 uk1317 
 uk1318 
 uk1319 
 uk1320 
 uk1321 
 uk1322 
 uk1323 
 uk1324 
 uk1325 
 uk1326 
 uk1327 
 uk1328 
 uk1329 
 uk1330 
 uk1331 
 uk1332 
 uk1333 
 uk1334 
 uk1335 
 uk1336 
 uk1337 
 uk1338 
 uk1339 
 uk1340 
 uk1341 
 uk1342 
 uk1343 
 uk1344 
 uk1345 
 uk1346 
 uk1347 
 uk1348 
 uk1349 
 uk1350 
 uk1351 
 uk1352 
 uk1353 
 uk1354 
 uk1355 
 uk1356 
 uk1357 
 uk1358 
 uk1359 
 uk1360 
 uk1361 
 uk1362 
 uk1363 
 uk1364 
 uk1365 
 uk1366 
 uk1367 
 uk1368 
 uk1369 
 uk1370 
 uk1371 
 uk1372 
 uk1373 
 uk1374 
 uk1375 
 uk1376 
 uk1377 
 uk1378 
 uk1379 
 uk1380 
 uk1381 
 uk1382 
 uk1383 
 uk1384 
 uk1385 
 uk1386 
 uk1387 
 uk1388 
 uk1389 
 uk1390 
 uk1391 
 uk1392 
 uk1393 
 uk1394 
 uk1395 
 uk1396 
 uk1397 
 uk1398 
 uk1399 
 uk1400 
 uk1401 
 uk1402 
 uk1403 
 uk1404 
 uk1405 
 uk1406 
 uk1407 
 uk1408 
 uk1409 
 uk1410 
 uk1411 
 uk1412 
 uk1413 
 uk1414 
 uk1415 
 uk1416 
 uk1417 
 uk1418 
 uk1419 
 uk1420 
 uk1421 
 uk1422 
 uk1423 
 uk1424 
 uk1425 
 uk1426 
 uk1427 
 uk1428 
 uk1429 
 uk1430 
 uk1431 
 uk1432 
 uk1433 
 uk1434 
 uk1435 
 uk1436 
 uk1437 
 uk1438 
 uk1439 
 uk1440 
 uk1441 
 uk1442 
 uk1443 
 uk1444 
 uk1445 
 uk1446 
 uk1447 
 uk1448 
 uk1449 
 uk1450 
 uk1451 
 uk1452 
 uk1453 
 uk1454 
 uk1455 
 uk1456 
 uk1457 
 uk1458 
 uk1459 
 uk1460 
 uk1461 
 uk1462 
 uk1463 
 uk1464 
 uk1465 
 pt15 
 pt16 
 pt17 
 pt18 
 pt19 
 pt20 
 pt23 
 pt24 
 pt21 
 pt22 
 pt25 
 pt26 
 pt27 
 pt28 
 pt29 
 pt30 
 pt31 
 pt32 
 it44 
 it45 
 it46 
 it47 
 it52 
 it53 
 it54 
 it55 
 it56 
 it57 
 it58 
 it59 
 it60 
 it61 
 it62 
 it63 
 it66 
 it67 
 it68 
 it69 
 it70 
 it71 
 it72 
 it73 
 it74 
 it75 
 it76 
 it77 
 it78 
 it79 
 it80 
 it81 
 it82 
 it83 
 it84 
 it85 
 it86 
 it87 
 it88 
 it89 
 it90 
 it91 
 it92 
 it93 
 it94 
 it95 
 it96 
 it97 
 it98 
 it99 
 it100 
 it101 
 it102 
 it103 
 it104 
 it105 
The following servers have not been listed on the nord's site yet
 bg14 
 bg15 
 bg16 
 bg17 
 bg18 
 bg19 
 bg20 
 bg21 
 bg22 
 bg23 
 bg24 
 bg25 
 bg26 
 bg27 
 bg28 
 ch64 
 ch65 
 ch66 
 ch67 
 ch72 
 ch73 
 ch74 
 ch75 
 ch76 
 ch77 
 ch78 
 ch79 
 ch80 
 ch81 
 ch82 
 ch83 
 ch84 
 ch85 
 ch86 
 ch87 
 ch88 
 ch89 
 ch90 
 ch91 
 ch92 
 ch93 
 ch94 
 ch95 
 ch96 
 ch97 
 ch98 
 ch99 
 ch100 
 ch101 
 ch102 
 ch103 
 ch116 
 ch117 
 ch118 
 ch119 
 ch120 
 ch121 
 ch122 
 ch123 
 ch124 
 ch125 
 ch126 
 ch127 
 ch108 
 ch109 
 ch110 
 ch111 
 ch112 
 ch113 
 ch114 
 ch115 
 ch128 
 ch129 
 ch130 
 ch131 
 ch132 
 ch133 
 ch134 
 ch135 
 ch136 
 ch137 
 ch138 
 ch139 
 ch140 
 ch141 
 ch142 
 ch143 
 ch144 
 ch145 
 ch146 
 ch147 
 ch148 
 ch149 
 ch150 
 ch151 
 ch152 
 ch153 
 ch154 
 ch155 
 ch156 
 ch157 
 ch158 
 ch159 
 ch160 
 ch161 
 ch162 
 ch163 
 ch164 
 ch165 
 ch166 
 ch167 
 ch168 
 ch169 
 ch170 
 ch171 
 ch172 
 ch173 
 ch174 
 ch175 
 ch178 
 ch179 
